{"metadata":
 {"gobiiJobStatus":"CV_PROGRESSSTATUS_NOSTATUS",
  "dataset":{"id":"10", "name":"sim_dominant_ds_02"},
  "gobiiFile":
  {"source":
   "\/data\/gobii_bundle\/crops\/zoan\/files\/data_20180625_112019_sim_dominant_proj_01_marker",
   "destination":
   "\/data\/gobii_bundle\/crops\/zoan\/loader\/digest\/data_20180625_112019_sim_dominant_proj_01_marker",
   "delimiter":"\\t",
   "gobiiFileType":"GENERIC",
   "requireDirectoriesToExist":false,
   "createSource":false},
  "project":{"id":"6", "name":"sim_dominant_proj_01"},
  "contactEmail":"v.calaminos@irri.org",
  "experiment":{"id":"8", "name":"sim_dominant_exp_02"},
  "datasetOrientationType":"MARKER_FAST",
  "qcCheck":false,
  "mapset":{"id":"3", "name":"sim_dominant"},
  "contactId":"67",
  "jobPayloadType":"CV_PAYLOADTYPE_MARKERS",
  "platform":{"id":"8", "name":"Dart_clone"},
  "gobiiCropType":"zoan",
  "datasetType":{"id":null, "name":"IUPAC"}},
 "instructions":
 [{"table":"marker",
   "gobiiFileColumns":
   [{"gobiiColumnType":"CONSTANT",
     "name":"platform_id",
     "constantValue":"8",
     "subcolumn":false},
    {"gobiiColumnType":"CSV_COLUMN",
     "rCoord":1,
     "cCoord":1,
     "name":"name",
     "subcolumn":false},
    {"gobiiColumnType":"CONSTANT",
     "name":"status",
     "constantValue":"57",
     "subcolumn":false}]},
  {"table":"linkage_group",
   "gobiiFileColumns":
   [{"gobiiColumnType":"CONSTANT",
     "name":"map_id",
     "constantValue":"3",
     "subcolumn":false},
    {"gobiiColumnType":"CSV_COLUMN",
     "rCoord":1,
     "cCoord":2,
     "name":"name",
     "subcolumn":false},
    {"gobiiColumnType":"CONSTANT",
     "name":"start",
     "constantValue":"0",
     "subcolumn":false},
    {"gobiiColumnType":"CONSTANT",
     "name":"stop",
     "constantValue":"0",
     "subcolumn":false}]},
  {"table":"marker_linkage_group",
   "gobiiFileColumns":
   [{"gobiiColumnType":"CONSTANT",
     "name":"platform_id",
     "constantValue":"8",
     "subcolumn":false},
    {"gobiiColumnType":"CONSTANT",
     "name":"map_id",
     "constantValue":"3",
     "subcolumn":false},
    {"gobiiColumnType":"CSV_COLUMN",
     "rCoord":1,
     "cCoord":3,
     "name":"stop",
     "subcolumn":false},
    {"gobiiColumnType":"CSV_COLUMN",
     "rCoord":1,
     "cCoord":1,
     "name":"marker_name",
     "subcolumn":false},
    {"gobiiColumnType":"CSV_COLUMN",
     "rCoord":1,
     "cCoord":3,
     "name":"start",
     "subcolumn":false},
    {"gobiiColumnType":"CSV_COLUMN",
     "rCoord":1,
     "cCoord":2,
     "name":"linkage_group_name",
     "subcolumn":false}]}]}
