[ {
  "dataSetExtracts" : [ {
    "gobiiFileType" : "HAPMAP",
    "accolate" : false,
    "gobiiJobStatus" : null,
    "extractDestinationDirectory" : "/data/gobii_bundle/crops/paramecia/extractor/output/daw279/hapmap/whole_dataset/2020_04_06_17_26_33",
    "gobiiExtractFilterType" : "WHOLE_DATASET",
    "markerList" : null,
    "sampleList" : null,
    "listFileName" : null,
    "gobiiDatasetType" : null,
    "principleInvestigator" : null,
    "project" : null,
    "dataSet" : {
      "id" : 72,
      "name" : "GSD-125_Illumina_IUPAC_DS"
    },
    "platforms" : [ ],
    "gobiiSampleListType" : null,
    "markerGroups" : null,
    "extractedFiles" : [ ],
    "logMessage" : null
  } ],
  "mapsetIds" : [ ],
  "contactId" : 67,
  "contactEmail" : "daw279@cornell.edu",
  "gobiiCropType" : "paramecia",
  "qcCheck" : false
} ]