germplasm_name	germplasm_external_code	dnasample_name	dnarun_name	dnasample_num	uuid
germplasmname_GSD-125_IUPAC101	IU0101	dnasamplename_GSD-125_IUPAC101	dnarun_GSD-125_IUPAC101	101	f88ceda635ea4730bfe25356323d4a0d
germplasmname_GSD-125_IUPAC102	IU0102	dnasamplename_GSD-125_IUPAC102	dnarun_GSD-125_IUPAC102	102	aead0e823123403db4157c51840c9320
germplasmname_GSD-125_IUPAC103	IU0103	dnasamplename_GSD-125_IUPAC103	dnarun_GSD-125_IUPAC103	103	5c92d72f3f084ea891c4ad6d29ba9913
germplasmname_GSD-125_IUPAC104	IU0104	dnasamplename_GSD-125_IUPAC104	dnarun_GSD-125_IUPAC104	104	c8758105429c4536b47bb130da3b0cfd
germplasmname_GSD-125_IUPAC105	IU0105	dnasamplename_GSD-125_IUPAC105	dnarun_GSD-125_IUPAC105	105	3a2f38e261174e789958697ef1220ed5
germplasmname_GSD-125_IUPAC106	IU0106	dnasamplename_GSD-125_IUPAC106	dnarun_GSD-125_IUPAC106	106	a9a1bb603cba4a609c4d262d738162b2
germplasmname_GSD-125_IUPAC107	IU0107	dnasamplename_GSD-125_IUPAC107	dnarun_GSD-125_IUPAC107	107	c423690d546b44dea1f74ecab4aae71b
germplasmname_GSD-125_IUPAC108	IU0108	dnasamplename_GSD-125_IUPAC108	dnarun_GSD-125_IUPAC108	108	a38522cfe0cf4c1c8ad9eb40d543092f
germplasmname_GSD-125_IUPAC109	IU0109	dnasamplename_GSD-125_IUPAC109	dnarun_GSD-125_IUPAC109	109	79c65f0c77e24ea7a37c363ba1d0c392
