{"metadata":
 {"gobiiJobStatus":"CV_PROGRESSSTATUS_NOSTATUS",
  "dataset":{"id":"8", "name":"sim_2letternuc_ds_01"},
  "gobiiFile":
  {"source":
   "\/data\/gobii_bundle\/crops\/zoan\/files\/data_20180810_003206_sim_2letternuc_proj_01_sample",
   "destination":
   "\/data\/gobii_bundle\/crops\/zoan\/loader\/digest\/data_20180810_003206_sim_2letternuc_proj_01_sample",
   "delimiter":"\\t",
   "gobiiFileType":"GENERIC",
   "requireDirectoriesToExist":false,
   "createSource":false},
  "project":{"id":"6", "name":"sim_2letternuc_proj_01"},
  "contactEmail":"gobii.dev@gmail.com",
  "experiment":{"id":"7", "name":"sim_2letternuc_exp_01"},
  "datasetOrientationType":"MARKER_FAST",
  "qcCheck":false,
  "mapset":{"id":"5", "name":"Test_Physical"},
  "contactId":"67",
  "jobPayloadType":"CV_PAYLOADTYPE_SAMPLES",
  "platform":{"id":"5", "name":"Sequencing"},
  "gobiiCropType":"zoan",
  "datasetType":{"id":null, "name":"IUPAC"}},
 "instructions":
 [{"table":"germplasm",
   "gobiiFileColumns":
   [{"gobiiColumnType":"CONSTANT",
     "name":"status",
     "constantValue":"57",
     "subcolumn":false},
    {"gobiiColumnType":"CSV_COLUMN",
     "rCoord":1,
     "cCoord":4,
     "name":"type_name",
     "subcolumn":false},
    {"gobiiColumnType":"CSV_COLUMN",
     "rCoord":1,
     "cCoord":6,
     "name":"species_name",
     "subcolumn":false},
    {"gobiiColumnType":"CSV_COLUMN",
     "rCoord":1,
     "cCoord":0,
     "name":"name",
     "subcolumn":false},
    {"gobiiColumnType":"CSV_COLUMN",
     "rCoord":1,
     "cCoord":1,
     "name":"external_code",
     "subcolumn":false}]},
  {"table":"germplasm_prop",
   "gobiiFileColumns":
   [{"gobiiColumnType":"CSV_COLUMN",
     "rCoord":1,
     "cCoord":1,
     "name":"external_code",
     "subcolumn":false},
    {"gobiiColumnType":"CONSTANT",
     "name":"props",
     "constantValue":"50:",
     "subcolumn":false,
     "subcolumnDelimiter":""},
    {"gobiiColumnType":"CSV_COLUMN",
     "rCoord":1,
     "cCoord":7,
     "name":"value1",
     "subcolumn":true,
     "subcolumnDelimiter":""}]},
  {"table":"dnasample",
   "gobiiFileColumns":
   [{"gobiiColumnType":"CONSTANT",
     "name":"project_id",
     "constantValue":"6",
     "subcolumn":false},
    {"gobiiColumnType":"CSV_COLUMN",
     "rCoord":1,
     "cCoord":5,
     "name":"num",
     "subcolumn":false},
    {"gobiiColumnType":"CSV_COLUMN",
     "rCoord":1,
     "cCoord":2,
     "name":"name",
     "subcolumn":false},
    {"gobiiColumnType":"CSV_COLUMN",
     "rCoord":1,
     "cCoord":1,
     "name":"external_code",
     "subcolumn":false},
    {"gobiiColumnType":"CONSTANT",
     "name":"status",
     "constantValue":"57",
     "subcolumn":false},
    {"gobiiColumnType":"CSV_COLUMN",
     "rCoord":1,
     "cCoord":1,
     "name":"uuid",
     "subcolumn":false}]},
  {"table":"dnasample_prop",
   "gobiiFileColumns":
   [{"gobiiColumnType":"CSV_COLUMN",
     "rCoord":1,
     "cCoord":2,
     "name":"dnasample_name",
     "subcolumn":false},
    {"gobiiColumnType":"CSV_COLUMN",
     "rCoord":1,
     "cCoord":1,
     "name":"external_code",
     "subcolumn":false},
    {"gobiiColumnType":"CSV_COLUMN",
     "rCoord":1,
     "cCoord":5,
     "name":"num",
     "subcolumn":false},
    {"gobiiColumnType":"CONSTANT",
     "name":"project_id",
     "constantValue":"6",
     "subcolumn":false},
    {"gobiiColumnType":"CONSTANT",
     "name":"props",
     "constantValue":"91:",
     "subcolumn":false,
     "subcolumnDelimiter":""},
    {"gobiiColumnType":"CSV_COLUMN",
     "rCoord":1,
     "cCoord":8,
     "name":"value1",
     "subcolumn":true,
     "subcolumnDelimiter":""},
    {"gobiiColumnType":"CONSTANT",
     "name":"comma1",
     "constantValue":",",
     "subcolumn":true,
     "subcolumnDelimiter":""},
    {"gobiiColumnType":"CONSTANT",
     "name":"key2",
     "constantValue":"86:",
     "subcolumn":true,
     "subcolumnDelimiter":""},
    {"gobiiColumnType":"CSV_COLUMN",
     "rCoord":1,
     "cCoord":9,
     "name":"value2",
     "subcolumn":true,
     "subcolumnDelimiter":""}]},
  {"table":"dnarun",
   "gobiiFileColumns":
   [{"gobiiColumnType":"CONSTANT",
     "name":"project_id",
     "constantValue":"6",
     "subcolumn":false},
    {"gobiiColumnType":"CONSTANT",
     "name":"experiment_id",
     "constantValue":"7",
     "subcolumn":false},
    {"gobiiColumnType":"CSV_COLUMN",
     "rCoord":1,
     "cCoord":5,
     "name":"num",
     "subcolumn":false},
    {"gobiiColumnType":"CSV_COLUMN",
     "rCoord":1,
     "cCoord":2,
     "name":"dnasample_name",
     "subcolumn":false},
    {"gobiiColumnType":"CSV_COLUMN",
     "rCoord":1,
     "cCoord":3,
     "name":"name",
     "subcolumn":false}]}]}
